<svg width="369" height="66" viewBox="0 0 369 66" fill="none" xmlns="http://www.w3.org/2000/svg">
<path fill-rule="evenodd" clip-rule="evenodd" d="M119.653 45.0044C122.084 45.0044 124.044 43.0246 124.044 40.6136V39.4963C124.044 37.2812 122.241 35.4779 120.026 35.4779H107.813V29.0288C107.813 29.0288 117.791 29.0288 120.006 29.0288C122.221 29.0288 124.044 27.2254 124.044 25.0104C124.044 22.7953 122.221 20.992 119.986 20.992H103.756V14.5625H122.535C127.808 14.5625 132.12 18.8553 132.12 24.1087V25.1084C132.12 28.3623 130.16 31.185 127.396 32.4003C130.238 34.2233 132.12 37.4185 132.12 41.0448V42.5934C132.12 47.4547 128.141 51.4143 123.26 51.4143H103.756V45.0044H119.653Z" fill="white"/>
<path fill-rule="evenodd" clip-rule="evenodd" d="M164.776 29.0288H153.406C147.134 29.0288 141.979 34.1253 141.998 40.4176V42.5934C142.018 47.4547 145.997 51.4143 150.858 51.4143H172.852V29.264C172.852 21.1684 166.226 14.5625 158.091 14.5625H144.605V20.992H156.719C161.149 20.992 164.776 24.5987 164.776 29.0288ZM154.935 35.4779H164.795V45.0044H154.465C152.054 45.0044 150.094 43.0246 150.094 40.6136V40.3196C150.094 37.6537 152.27 35.4779 154.935 35.4779Z" fill="white"/>
<path fill-rule="evenodd" clip-rule="evenodd" d="M204.628 14.582C210.783 14.582 215.801 19.5609 215.801 25.6768V27.6762C215.801 33.7724 210.783 38.7513 204.648 38.7513H192.984V51.4142H184.85V14.582H204.628ZM203.315 32.1846C205.765 32.1846 207.745 30.2244 207.745 27.8134V25.3827C207.745 22.9717 205.765 21.0115 203.334 21.0115H192.984V32.1846H203.315Z" fill="white"/>
<path fill-rule="evenodd" clip-rule="evenodd" d="M233.558 21.0899V51.4142H241.634V21.0899H253.18V14.582H222.287V21.0899H233.558Z" fill="white"/>
<path fill-rule="evenodd" clip-rule="evenodd" d="M286.915 14.5625H274.506C269.861 14.5625 267.489 15.327 265.039 17.5028C261.177 20.9528 259.197 26.0885 259.197 32.5768C259.197 38.575 260.824 44.0831 263.765 47.3175C266.509 50.3558 270.018 51.4143 277.349 51.4143H286.915V45.0044H276.114C270.958 45.0044 267.469 41.2016 267.469 35.4975H286.915V29.0484H267.528C267.509 23.7166 271.253 21.0312 274.722 21.0312H286.915V14.5625Z" fill="white"/>
<path fill-rule="evenodd" clip-rule="evenodd" d="M299.932 14.5625H307.988V28.97H315.437C318.906 28.97 322.65 26.3041 322.631 20.9528L322.592 14.5625H330.687V17.4244C330.687 23.7362 328.845 28.7348 325.199 32.1847C328.923 35.6151 330.805 40.6724 330.805 47.0234V51.3751L322.709 51.4143L322.748 43.5147C322.768 38.1633 319.024 35.4779 315.554 35.4779H307.988V51.3751H299.932V14.5625Z" fill="white"/>
<path fill-rule="evenodd" clip-rule="evenodd" d="M368.815 14.5625H356.407C351.761 14.5625 349.389 15.327 346.959 17.5028C343.077 20.9528 341.117 26.0885 341.117 32.5768C341.117 38.575 342.725 44.0831 345.665 47.3175C348.409 50.3558 351.918 51.4143 359.249 51.4143H368.815V45.0044H358.034C352.859 45.0044 349.37 41.2016 349.37 35.4975L349.428 29.0484C349.409 23.7166 353.153 21.0312 356.622 21.0312H368.815V14.5625Z" fill="white"/>
<path fill-rule="evenodd" clip-rule="evenodd" d="M30.2067 18.6415C30.2067 18.7003 30.2067 18.7199 30.1675 18.7787C29.403 19.406 28.6778 20.0921 28.0505 20.8369L19.0532 31.5396C19.014 31.5789 18.9748 31.6181 18.9159 31.6181H14.5447C13.7802 31.6181 13.153 32.2453 13.153 33.0098C13.153 33.7743 13.7802 34.4015 14.5447 34.4015H16.2893C16.3677 34.4015 16.4657 34.4604 16.4657 34.578C16.4657 34.6172 16.4461 34.6564 16.4265 34.676L11.5064 40.537C10.1146 42.1835 9.09534 44.0261 8.42887 45.9667C8.40927 46.0255 8.35046 46.0843 8.25245 46.0843C8.23285 46.0843 8.21325 46.0843 8.17404 46.0647C3.37155 43.6733 0 38.7336 0 33.0098C0 24.9926 6.52747 18.4651 14.5251 18.4651H30.0303C30.1479 18.4651 30.2067 18.5631 30.2067 18.6415ZM27.6977 51.5729C26.9332 51.5729 26.2863 50.9653 26.2863 50.2008C26.2863 49.8675 26.3843 49.5539 26.6195 49.2795L53.2979 17.485C53.3175 17.4458 53.3371 17.4262 53.3371 17.3674C53.3371 17.2694 53.2391 17.191 53.1607 17.191L42.0463 17.2106C37.5575 17.2302 33.0882 19.1316 29.9911 22.8364L13.6626 42.3208C13.643 42.3208 13.643 42.3208 13.643 42.3208C11.3692 45.0062 10.2715 48.2994 10.2715 51.5729C10.2911 55.6893 12.0356 59.7862 15.4268 62.6285C17.9947 64.7847 21.3466 66 24.6985 66H65.4511C69.4108 66 72.6451 62.7657 72.6451 58.7865C72.6451 54.8268 69.4108 51.5729 65.4511 51.5729H27.6977ZM53.984 47.3585C53.984 47.2997 53.984 47.2605 54.0428 47.2213C54.7876 46.594 55.5129 45.8883 56.1402 45.1631L65.1375 34.4407C65.1767 34.4015 65.2159 34.3819 65.2747 34.3819H69.646C70.4105 34.3819 71.0377 33.7547 71.0377 32.9902C71.0377 32.2257 70.4105 31.5985 69.646 31.5985H67.9014C67.823 31.5985 67.725 31.5396 67.725 31.422C67.725 31.3828 67.7446 31.3436 67.7642 31.324L72.6843 25.463C74.076 23.8165 75.0953 21.9739 75.7618 20.0333C75.7814 19.9745 75.8402 19.9157 75.9382 19.9157C75.9578 19.9157 75.9774 19.9157 76.0166 19.9353C80.8191 22.3267 84.1907 27.2664 84.1907 32.9902C84.1907 41.0074 77.6632 47.5349 69.6656 47.5349H54.1604C54.0428 47.5349 53.984 47.4369 53.984 47.3585ZM56.493 14.4075C57.2575 14.4075 57.9044 15.0347 57.9044 15.7992C57.9044 16.1129 57.8064 16.4461 57.5711 16.7205L30.8928 48.515C30.8732 48.5346 30.8536 48.5738 30.8536 48.6326C30.8536 48.7306 30.9516 48.809 31.03 48.809L42.1443 48.7894C46.6332 48.7698 51.1025 46.8488 54.1996 43.1636L70.5281 23.6792C70.5477 23.6792 70.5477 23.6792 70.5477 23.6792C72.8215 20.9742 73.9192 17.681 73.9192 14.4075C73.8996 10.2911 72.155 6.21384 68.7639 3.37155C66.196 1.21533 62.8441 0 59.4921 0H18.7395C14.7799 0 11.5456 3.23433 11.5456 7.21354C11.5456 11.1732 14.7799 14.4075 18.7395 14.4075H56.493Z" fill="#737373"/>
<path fill-rule="evenodd" clip-rule="evenodd" d="M26.6197 20.0745L18.2496 30.0128H14.5448C12.8983 30.0128 11.5653 31.3653 11.5653 33.0119C11.5653 33.9136 11.977 34.7565 12.6826 35.3249L13.3491 35.8738L10.2912 39.5001C9.38949 40.5783 8.60541 41.7544 7.97815 42.9893L7.5077 43.891L6.70402 43.2833C3.50889 40.8135 1.58789 37.0499 1.58789 33.0119C1.58789 25.8767 7.40969 20.0745 14.5252 20.0745H26.6197ZM50.1225 18.8004L25.3847 48.2623C24.9339 48.8111 24.6987 49.4972 24.6987 50.2029C24.6987 51.8494 26.0512 53.1824 27.6978 53.1824H65.4513C68.5288 53.1824 71.0574 55.711 71.0574 58.7885C71.0574 61.8857 68.5288 64.3947 65.4513 64.3947H24.6987C21.7192 64.3947 18.7201 63.3166 16.4462 61.4152C13.5255 58.965 11.879 55.3778 11.879 51.575C11.879 48.6347 12.761 45.6944 14.7604 43.4794C14.7997 43.4206 14.8389 43.3813 14.8781 43.3421L31.2065 23.8577C33.9116 20.6626 37.8516 18.8004 42.0465 18.8004H50.1225ZM57.5713 45.9296L65.9413 35.9914H69.6461C71.2927 35.9914 72.6256 34.6388 72.6256 32.9923C72.6256 32.0906 72.214 31.2477 71.5083 30.6792L70.8418 30.1304L73.8997 26.4844C74.8014 25.4259 75.5855 24.2498 76.2324 23.0149L76.6832 22.1132L77.4869 22.7208C80.682 25.1711 82.603 28.9543 82.603 32.9923C82.603 40.1274 76.7812 45.9296 69.6657 45.9296H57.5713ZM34.0684 47.2037L58.8062 17.7419C59.257 17.1931 59.4923 16.507 59.4923 15.8013C59.4923 14.1547 58.1397 12.8218 56.4931 12.8218H18.7397C15.6621 12.8218 13.1335 10.2931 13.1335 7.21562C13.1335 4.1185 15.6621 1.58984 18.7397 1.58984H59.4923C62.4718 1.58984 65.4709 2.68756 67.7447 4.58895C70.6654 7.03921 72.312 10.6264 72.312 14.4096C72.312 17.3695 71.4103 20.3098 69.4305 22.5248C69.3913 22.564 69.3521 22.6032 69.3129 22.662L52.9844 42.1268C50.2793 45.3416 46.3393 47.1841 42.1445 47.2037H34.0684Z" fill="#F8D015"/>
</svg>
