<svg width="27" height="14" viewBox="0 0 27 14" fill="none" xmlns="http://www.w3.org/2000/svg">
<path d="M6.61266 0.0600586H12.8527L10.0927 13.2601H0.972656L6.61266 0.0600586ZM19.8127 0.0600586H26.0527L23.2927 13.2601H14.1727L19.8127 0.0600586Z" fill="#292929"/>
</svg>
