<svg width="18" height="18" viewBox="0 0 18 18" fill="none" xmlns="http://www.w3.org/2000/svg">
<path d="M4.31006 5.29406C4.31006 5.15365 4.36602 5.01899 4.46564 4.91971C4.56525 4.82043 4.70036 4.76465 4.84124 4.76465H8.02834C8.16922 4.76465 8.30433 4.82043 8.40394 4.91971C8.50356 5.01899 8.55952 5.15365 8.55952 5.29406C8.55952 5.43447 8.50356 5.56913 8.40394 5.66841C8.30433 5.76769 8.16922 5.82347 8.02834 5.82347H4.84124C4.70036 5.82347 4.56525 5.76769 4.46564 5.66841C4.36602 5.56913 4.31006 5.43447 4.31006 5.29406Z" fill="#FFCF24"/>
<path d="M4.84124 6.88281C4.70036 6.88281 4.56525 6.93859 4.46564 7.03787C4.36602 7.13716 4.31006 7.27182 4.31006 7.41222C4.31006 7.55263 4.36602 7.68729 4.46564 7.78658C4.56525 7.88586 4.70036 7.94164 4.84124 7.94164H6.96597C7.10685 7.94164 7.24196 7.88586 7.34158 7.78658C7.44119 7.68729 7.49716 7.55263 7.49716 7.41222C7.49716 7.27182 7.44119 7.13716 7.34158 7.03787C7.24196 6.93859 7.10685 6.88281 6.96597 6.88281H4.84124Z" fill="#FFCF24"/>
<path d="M6.43494 3.60109e-07C5.32907 -0.000370695 4.24212 0.286014 3.28091 0.831016C2.3197 1.37602 1.51729 2.16088 0.952518 3.10849C0.38775 4.05611 0.0800585 5.13386 0.0596767 6.23585C0.0392949 7.33785 0.306924 8.42617 0.836267 9.39388L0.0819872 12.0304C0.0554464 12.1229 0.0547393 12.221 0.0799421 12.3139C0.105145 12.4069 0.155303 12.4912 0.225019 12.5579C0.294735 12.6245 0.381368 12.6709 0.475594 12.6922C0.569821 12.7134 0.668073 12.7086 0.759777 12.6784L3.24359 11.8535C4.09015 12.3411 5.03789 12.628 6.01351 12.6921C6.98913 12.7562 7.96647 12.5958 8.86992 12.2232C9.77337 11.8506 10.5787 11.2759 11.2236 10.5435C11.8686 9.81105 12.3358 8.94059 12.5892 7.99941C12.8426 7.05823 12.8754 6.07156 12.685 5.11574C12.4946 4.15992 12.0861 3.26057 11.4911 2.48726C10.8962 1.71395 10.1307 1.08742 9.25399 0.656118C8.37723 0.224821 7.41267 0.000326064 6.43494 3.60109e-07ZM1.12311 6.35294C1.12328 5.17829 1.51542 4.03705 2.23779 3.10889C2.96016 2.18074 3.97173 1.51838 5.11325 1.22611C6.25477 0.933831 7.4614 1.02823 8.54318 1.49445C9.62496 1.96066 10.5204 2.77221 11.0887 3.80134C11.6569 4.83046 11.8656 6.0187 11.6818 7.179C11.4981 8.33929 10.9324 9.40574 10.0738 10.2104C9.21524 11.0151 8.11252 11.5124 6.93926 11.6239C5.766 11.7355 4.58884 11.4549 3.59311 10.8265C3.5265 10.7844 3.45133 10.7576 3.37305 10.7481C3.29477 10.7386 3.21535 10.7465 3.14054 10.7714L1.37914 11.3569L1.92094 9.47118C1.94068 9.40173 1.94597 9.32899 1.93647 9.25743C1.92697 9.18587 1.90288 9.117 1.8657 9.05506C1.37793 8.2377 1.12131 7.30395 1.12311 6.35294Z" fill="#FFCF24"/>
<path d="M10.9776 14.7675L8.4258 13.4969C8.89324 13.3667 9.34262 13.1931 9.76757 12.9802L11.2156 13.7023L15.9962 11.32V10.5884C15.9962 10.3075 15.8843 10.0382 15.6851 9.83965C15.4858 9.64108 15.2156 9.52953 14.9339 9.52953H13.1555C13.318 9.1907 13.454 8.836 13.5634 8.4707H14.9339C15.4974 8.4707 16.0378 8.69381 16.4363 9.09095C16.8347 9.48808 17.0586 10.0267 17.0586 10.5884V15.8825C17.0586 16.4441 16.8347 16.9827 16.4363 17.3799C16.0378 17.777 15.4974 18.0001 14.9339 18.0001H7.49729C6.93378 18.0001 6.39334 17.777 5.99488 17.3799C5.59641 16.9827 5.37256 16.4441 5.37256 15.8825V13.6907C5.71995 13.7394 6.07372 13.7648 6.43492 13.7648V15.8825C6.43492 16.1633 6.54685 16.4326 6.74608 16.6312C6.94532 16.8297 7.21553 16.9413 7.49729 16.9413H14.9339C15.2156 16.9413 15.4858 16.8297 15.6851 16.6312C15.8843 16.4326 15.9962 16.1633 15.9962 15.8825V12.5038L11.4535 14.7675C11.3797 14.8044 11.2982 14.8236 11.2156 14.8236C11.133 14.8236 11.0515 14.8044 10.9776 14.7675Z" fill="#FFCF24"/>
</svg>
